﻿[
	{
		"_id": "co-50",
		"_parentId": "course",
		"_type": "page",
		"_classes": "",
		"title": "مقدمة",
		"displayTitle": "مقدمة",
		"pageBody": "&#160;",
		"body": "تعرف على ميزة Instagram Stories وطريقة عملها.",
		"_graphic": {
			"src": "course/en/images/contentObjects/ashleymilardo_1.png",
			"alt": "نظرة عامة"
		},
		"linkText": "عرض",
		"durationLabel": "المدة:",
		"duration": "4 دقائق",
		"_pageLevelProgress": {
			"_isEnabled": true
		}
	},
    {
		"_id": "co-100",
		"_parentId": "course",
		"_type": "page",
		"_classes": "",
		"title": "كيفية استخدام الأنشطة التجارية لميزة Instagram Stories لمشاركة قصة علامتها التجارية مجانًا",
		"displayTitle": "كيفية استخدام الأنشطة التجارية لميزة Instagram Stories لمشاركة قصة علامتها التجارية مجانًا",
		"pageBody": "&#160;",
		"body": "تعرف على كيفية استخدام الأنشطة التجارية لميزة Instagram Stories لمشاركة قصة علامتها التجارية.",
		"_graphic": {
			"src": "course/en/images/contentObjects/daise122_1.png",
			"alt": "نظرة عامة"
		},
		"linkText": "عرض",
		"durationLabel": "المدة:",
		"duration": "4 دقائق",
		"_pageLevelProgress": {
			"_isEnabled": true
		}
	},
    {
		"_id": "co-150",
		"_parentId": "course",
		"_type": "page",
		"_classes": "",
		"title": "الإعلانات في Instagram Stories",
		"displayTitle": "الإعلانات في Instagram Stories",
		"pageBody": "&#160;",
		"body": "افهم طريقة عمل الإعلانات في Instagram Stories وتعرف على كيفية استخدام الأنشطة التجارية لها.",
		"_graphic": {
			"src": "course/en/images/contentObjects/daise122_2.png",
			"alt": "نظرة عامة"
		},
		"linkText": "عرض",
		"durationLabel": "المدة:",
		"duration": "4 دقائق",
		"_pageLevelProgress": {
			"_isEnabled": true
		}
	},
    {
		"_id": "co-200",
		"_parentId": "course",
		"_type": "page",
		"_classes": "",
		"title": "إنشاء إعلانك في Instagram Stories",
		"displayTitle": "إنشاء إعلانك في Instagram Stories",
		"pageBody": "&#160;",
		"body": "سنوضح لك الخطوات التفصيلية لكيفية إنشاء إعلان في Instagram Stories.",
		"_graphic": {
			"src": "course/en/images/contentObjects/ashleymilardo_2.png",
			"alt": "نظرة عامة"
		},
		"linkText": "عرض",
		"durationLabel": "المدة:",
		"duration": "4 دقائق",
		"_pageLevelProgress": {
			"_isEnabled": true
		}
	},
    {
		"_id": "co-250",
		"_parentId": "course",
		"_type": "page",
		"_classes": "",
		"title": "رؤى Stories",
		"displayTitle": "رؤى Stories",
		"pageBody": "&#160;",
		"body": "تعرف على الرؤى التي يمكنك الحصول عليها من القصص وكيفية الوصول إليها.",
		"_graphic": {
			"src": "course/en/images/contentObjects/ashleymilardo_3.png",
			"alt": "نظرة عامة"
		},
		"linkText": "عرض",
		"durationLabel": "المدة:",
		"duration": "4 دقائق",
		"_pageLevelProgress": {
			"_isEnabled": true
		}
	}
    
]
